%YAML 1.1
%TAG !u! tag:unity3d.com,2011:
--- !u!114 &11400000
MonoBehaviour:
  m_ObjectHideFlags: 0
  m_CorrespondingSourceObject: {fileID: 0}
  m_PrefabInstance: {fileID: 0}
  m_PrefabAsset: {fileID: 0}
  m_GameObject: {fileID: 0}
  m_Enabled: 1
  m_EditorHideFlags: 0
  m_Script: {fileID: 11500000, guid: 5047ce18e4490c24b80c55ed515b903c, type: 3}
  m_Name: classRaider
  m_EditorClassIdentifier: 
  displayName: Raider
  growthRates: {fileID: 11400000, guid: 276ecfc63649f1044849fa7a185c97d8, type: 2}
  baseStats: {fileID: 11400000, guid: ba83199057620314ea9306b747c9803e, type: 2}
  statCaps: {fileID: 11400000, guid: 08436228231e71a44b99120c726389b2, type: 2}
  terrainOverrides: []
