%YAML 1.1
%TAG !u! tag:unity3d.com,2011:
--- !u!114 &11400000
MonoBehaviour:
  m_ObjectHideFlags: 0
  m_CorrespondingSourceObject: {fileID: 0}
  m_PrefabInstance: {fileID: 0}
  m_PrefabAsset: {fileID: 0}
  m_GameObject: {fileID: 0}
  m_Enabled: 1
  m_EditorHideFlags: 0
  m_Script: {fileID: 11500000, guid: b7acb351fee4ca94b87dad3801d807db, type: 3}
  m_Name: classRates_Scout
  m_EditorClassIdentifier: 
  str: -0.1
  mag: 0.1
  def: -0.1
  res: 0.1
  skl: 0.05
  spd: 0.25
  hp: 0
