%YAML 1.1
%TAG !u! tag:unity3d.com,2011:
--- !u!114 &11400000
MonoBehaviour:
  m_ObjectHideFlags: 0
  m_CorrespondingSourceObject: {fileID: 0}
  m_PrefabInternal: {fileID: 0}
  m_GameObject: {fileID: 0}
  m_Enabled: 1
  m_EditorHideFlags: 0
  m_Script: {fileID: 11500000, guid: 33b1d5ab5064530459cbcff5c57935ed, type: 3}
  m_Name: DefaultCliff
  m_EditorClassIdentifier: 
  tagName: Cliff
  movPenalty: 0
  walkable: 0
  evasionBonus: 0
