%YAML 1.1
%TAG !u! tag:unity3d.com,2011:
--- !u!114 &11400000
MonoBehaviour:
  m_ObjectHideFlags: 0
  m_CorrespondingSourceObject: {fileID: 0}
  m_PrefabInstance: {fileID: 0}
  m_PrefabAsset: {fileID: 0}
  m_GameObject: {fileID: 0}
  m_Enabled: 1
  m_EditorHideFlags: 0
  m_Script: {fileID: 11500000, guid: 1488d12415c60354c8c4e0ed97d406c1, type: 3}
  m_Name: characterCaps_Asset_HP_Flaw_Res
  m_EditorClassIdentifier: 
  hp: 8
  str: 0
  mag: -1
  def: 2
  res: -1
  spd: 0
  skl: -1
  mov: 0
