%YAML 1.1
%TAG !u! tag:unity3d.com,2011:
--- !u!114 &11400000
MonoBehaviour:
  m_ObjectHideFlags: 0
  m_CorrespondingSourceObject: {fileID: 0}
  m_PrefabInternal: {fileID: 0}
  m_GameObject: {fileID: 0}
  m_Enabled: 1
  m_EditorHideFlags: 0
  m_Script: {fileID: 11500000, guid: 1488d12415c60354c8c4e0ed97d406c1, type: 3}
  m_Name: classCaps_Mechanic
  m_EditorClassIdentifier: 
  hp: 28
  str: 17
  mag: 12
  def: 19
  res: 15
  spd: 16
  skl: 20
  mov: 5
