%YAML 1.1
%TAG !u! tag:unity3d.com,2011:
--- !u!114 &11400000
MonoBehaviour:
  m_ObjectHideFlags: 0
  m_CorrespondingSourceObject: {fileID: 0}
  m_PrefabInternal: {fileID: 0}
  m_GameObject: {fileID: 0}
  m_Enabled: 1
  m_EditorHideFlags: 0
  m_Script: {fileID: 11500000, guid: 1488d12415c60354c8c4e0ed97d406c1, type: 3}
  m_Name: classBases_Mechanic
  m_EditorClassIdentifier: 
  hp: 2
  str: 0
  mag: 0
  def: 1
  res: 0
  spd: 0
  skl: 3
  mov: 5
