%YAML 1.1
%TAG !u! tag:unity3d.com,2011:
--- !u!74 &7400000
AnimationClip:
  m_ObjectHideFlags: 0
  m_PrefabParentObject: {fileID: 0}
  m_PrefabInternal: {fileID: 0}
  m_Name: monster-envy
  serializedVersion: 6
  m_Legacy: 0
  m_Compressed: 0
  m_UseHighQualityCurve: 1
  m_RotationCurves: []
  m_CompressedRotationCurves: []
  m_EulerCurves: []
  m_PositionCurves: []
  m_ScaleCurves: []
  m_FloatCurves:
  - curve:
      serializedVersion: 2
      m_Curve:
      - serializedVersion: 2
        time: 0
        value: 1
        inSlope: -3
        outSlope: -3
        tangentMode: 34
      - serializedVersion: 2
        time: 0.33333334
        value: 0
        inSlope: -3
        outSlope: -3
        tangentMode: 34
      m_PreInfinity: 2
      m_PostInfinity: 2
      m_RotationOrder: 4
    attribute: m_Color.a
    path: Root/Effect1
    classID: 212
    script: {fileID: 0}
  m_PPtrCurves:
  - curve:
    - time: 0
      value: {fileID: 21300000, guid: c77bd5e8400144dff818adb1a28ba7ef, type: 3}
    - time: 0.06666667
      value: {fileID: 21300000, guid: 0070c05a20e9d4b0ab502eafa389b85e, type: 3}
    - time: 0.13333334
      value: {fileID: 21300000, guid: 21b96c6fd2cc84a9d95edd3d119fb468, type: 3}
    - time: 0.2
      value: {fileID: 21300000, guid: 3552da3d7d866416bbd2aaf7d52cc8ea, type: 3}
    - time: 0.26666668
      value: {fileID: 21300000, guid: d76a9ae150347439981364e2702256fc, type: 3}
    - time: 0.33333334
      value: {fileID: 21300000, guid: d76a9ae150347439981364e2702256fc, type: 3}
    attribute: m_Sprite
    path: Root/Effect1
    classID: 212
    script: {fileID: 0}
  m_SampleRate: 60
  m_WrapMode: 0
  m_Bounds:
    m_Center: {x: 0, y: 0, z: 0}
    m_Extent: {x: 0, y: 0, z: 0}
  m_ClipBindingConstant:
    genericBindings:
    - serializedVersion: 2
      path: 526656906
      attribute: 304273561
      script: {fileID: 0}
      typeID: 212
      customType: 0
      isPPtrCurve: 0
    - serializedVersion: 2
      path: 526656906
      attribute: 0
      script: {fileID: 0}
      typeID: 212
      customType: 23
      isPPtrCurve: 1
    pptrCurveMapping:
    - {fileID: 21300000, guid: c77bd5e8400144dff818adb1a28ba7ef, type: 3}
    - {fileID: 21300000, guid: 0070c05a20e9d4b0ab502eafa389b85e, type: 3}
    - {fileID: 21300000, guid: 21b96c6fd2cc84a9d95edd3d119fb468, type: 3}
    - {fileID: 21300000, guid: 3552da3d7d866416bbd2aaf7d52cc8ea, type: 3}
    - {fileID: 21300000, guid: d76a9ae150347439981364e2702256fc, type: 3}
    - {fileID: 21300000, guid: d76a9ae150347439981364e2702256fc, type: 3}
  m_AnimationClipSettings:
    serializedVersion: 2
    m_AdditiveReferencePoseClip: {fileID: 0}
    m_AdditiveReferencePoseTime: 0
    m_StartTime: 0
    m_StopTime: 0.35000002
    m_OrientationOffsetY: 0
    m_Level: 0
    m_CycleOffset: 0
    m_HasAdditiveReferencePose: 0
    m_LoopTime: 1
    m_LoopBlend: 0
    m_LoopBlendOrientation: 0
    m_LoopBlendPositionY: 0
    m_LoopBlendPositionXZ: 0
    m_KeepOriginalOrientation: 0
    m_KeepOriginalPositionY: 1
    m_KeepOriginalPositionXZ: 0
    m_HeightFromFeet: 0
    m_Mirror: 0
  m_EditorCurves:
  - curve:
      serializedVersion: 2
      m_Curve:
      - serializedVersion: 2
        time: 0
        value: 1
        inSlope: -3
        outSlope: -3
        tangentMode: 34
      - serializedVersion: 2
        time: 0.33333334
        value: 0
        inSlope: -3
        outSlope: -3
        tangentMode: 34
      m_PreInfinity: 2
      m_PostInfinity: 2
      m_RotationOrder: 4
    attribute: m_Color.a
    path: Root/Effect1
    classID: 212
    script: {fileID: 0}
  m_EulerEditorCurves: []
  m_HasGenericRootTransform: 0
  m_HasMotionFloatCurves: 0
  m_GenerateMotionCurves: 0
  m_Events: []
